﻿{
  "Colors": {
    "Favorite": "blue"
  },
  "DisableSSL": false, 
  "ConnectionStrings": {
    "DutchConnectionString": "server=(localdb)\\ProjectsV13;Database=DutchTreatDb;Integrated Security=true;MultipleActiveResultSets=true;"
  },
  "Logging": {
    "LogLevel": {
      //"DutchTreat": "Information",
      "Default": "Information",
      "Microsoft": "Warning"
    }
  },
  "Tokens": {
    "Key": "asdAFSD;qpuK;afdslwer;ypxcovjö fajs flökj ;$!",
    "Issuer": "localhost",
    "Audience":  "localhost" 
  }
}
